Live Coding - Data Science Lifecycle
…
waste_data <- read_csv(file = "data/raw_data/abidjan-waste-characterization.csv")

# Explain: dplyr

# An R Package for data manipulation
# glimpse() function is part of that R Package
# other functions are part of base R (come with R installation)

library(dplyr)

waste_data

# A tibble: 2,080 × 4
   Date   Sample Category     `mass (kg)`
   <chr>  <chr>  <chr>              <dbl>
 1 23-Feb 23-A1  Food/Organic        36.5
 2 23-Feb 23-B1  Food/Organic        65.0
 3 23-Feb 23-A2  Food/Organic        62.4
 4 23-Feb 23-B2  Food/Organic        72.6
 5 23-Feb 23-A3  Food/Organic        88.6
 6 23-Feb 23-B3  Food/Organic        69.1
 7 23-Feb 23-A4  Food/Organic        66.0
 8 23-Feb 23-B4  Food/Organic        89.6
 9 23-Feb 23-A5  Food/Organic        53.9
10 23-Feb 23-B5  Food/Organic        67.5
# … with 2,070 more rows
…
ncol(waste_data)

[1] 4

Stored in a R data package

Gapminder

The data is an excerpt of the Gapminder data on life expectancy, GDP per capita, and population by country. Compiled for the purpose of teaching with data until 2007. It is not a definitive source of socioeconomic data and it is not updated (Bryan, Kim, and MacDonald 2017).

library(gapminder)

gapminder

# A tibble: 1,704 × 6
   country     continent  year lifeExp      pop gdpPercap
   <fct>       <fct>     <int>   <dbl>    <int>     <dbl>
 1 Afghanistan Asia       1952    28.8  8425333      779.
 2 Afghanistan Asia       1957    30.3  9240934      821.
 3 Afghanistan Asia       1962    32.0 10267083      853.
 4 Afghanistan Asia       1967    34.0 11537966      836.
 5 Afghanistan Asia       1972    36.1 13079460      740.
 6 Afghanistan Asia       1977    38.4 14880372      786.
 7 Afghanistan Asia       1982    39.9 12881816      978.
 8 Afghanistan Asia       1987    40.8 13867957      852.
 9 Afghanistan Asia       1992    41.7 16317921      649.
10 Afghanistan Asia       1997    41.8 22227415      635.
# … with 1,694 more rows
…
Waste characterization data

Look at the output in the console

Which principles for data organisation in spreadsheets are not followed?

Principle 3: Choose Good Names for Things

Principle 4: Write Dates as YYYY-MM-DD

# Take a look at the data

waste_data 

# A tibble: 2,080 × 4
   Date   Sample Category     `mass (kg)`
   <chr>  <chr>  <chr>              <dbl>
 1 23-Feb 23-A1  Food/Organic        36.5
 2 23-Feb 23-B1  Food/Organic        65.0
 3 23-Feb 23-A2  Food/Organic        62.4
 4 23-Feb 23-B2  Food/Organic        72.6
 5 23-Feb 23-A3  Food/Organic        88.6
 6 23-Feb 23-B3  Food/Organic        69.1
 7 23-Feb 23-A4  Food/Organic        66.0
 8 23-Feb 23-B4  Food/Organic        89.6
 9 23-Feb 23-A5  Food/Organic        53.9
10 23-Feb 23-B5  Food/Organic        67.5
# … with 2,070 more rows

# rename dplyr function

# The three rules:

# 1. First argument is always a data frame
# 2. Subsequent arguments say what to do with that data frame
# 3. Always return a data frame
# 4. Don't modify in place

rename(.data = waste_data, Mass = `mass (kg)`)

# A tibble: 2,080 × 4
   Date   Sample Category      Mass
   <chr>  <chr>  <chr>        <dbl>
 1 23-Feb 23-A1  Food/Organic  36.5
 2 23-Feb 23-B1  Food/Organic  65.0
 3 23-Feb 23-A2  Food/Organic  62.4
 4 23-Feb 23-B2  Food/Organic  72.6
 5 23-Feb 23-A3  Food/Organic  88.6
 6 23-Feb 23-B3  Food/Organic  69.1
 7 23-Feb 23-A4  Food/Organic  66.0
 8 23-Feb 23-B4  Food/Organic  89.6
 9 23-Feb 23-A5  Food/Organic  53.9
10 23-Feb 23-B5  Food/Organic  67.5
# … with 2,070 more rows

rename(waste_data, Mass = `mass (kg)`)

# A tibble: 2,080 × 4
   Date   Sample Category      Mass
   <chr>  <chr>  <chr>        <dbl>
 1 23-Feb 23-A1  Food/Organic  36.5
 2 23-Feb 23-B1  Food/Organic  65.0
 3 23-Feb 23-A2  Food/Organic  62.4
 4 23-Feb 23-B2  Food/Organic  72.6
 5 23-Feb 23-A3  Food/Organic  88.6
 6 23-Feb 23-B3  Food/Organic  69.1
 7 23-Feb 23-A4  Food/Organic  66.0
 8 23-Feb 23-B4  Food/Organic  89.6
 9 23-Feb 23-A5  Food/Organic  53.9
10 23-Feb 23-B5  Food/Organic  67.5
# … with 2,070 more rows

waste_data %>% 
  rename(Mass = `mass (kg)`)

# A tibble: 2,080 × 4
   Date   Sample Category      Mass
   <chr>  <chr>  <chr>        <dbl>
 1 23-Feb 23-A1  Food/Organic  36.5
 2 23-Feb 23-B1  Food/Organic  65.0
 3 23-Feb 23-A2  Food/Organic  62.4
 4 23-Feb 23-B2  Food/Organic  72.6
 5 23-Feb 23-A3  Food/Organic  88.6
 6 23-Feb 23-B3  Food/Organic  69.1
 7 23-Feb 23-A4  Food/Organic  66.0
 8 23-Feb 23-B4  Food/Organic  89.6
 9 23-Feb 23-A5  Food/Organic  53.9
10 23-Feb 23-B5  Food/Organic  67.5
# … with 2,070 more rows

waste_data_clean <- waste_data %>% 
  rename(Mass = `mass (kg)`)

Gapminder data

# Take a look at the data

gapminder 

# A tibble: 1,704 × 6
   country     continent  year lifeExp      pop gdpPercap
   <fct>       <fct>     <int>   <dbl>    <int>     <dbl>
 1 Afghanistan Asia       1952    28.8  8425333      779.
 2 Afghanistan Asia       1957    30.3  9240934      821.
 3 Afghanistan Asia       1962    32.0 10267083      853.
 4 Afghanistan Asia       1967    34.0 11537966      836.
 5 Afghanistan Asia       1972    36.1 13079460      740.
 6 Afghanistan Asia       1977    38.4 14880372      786.
 7 Afghanistan Asia       1982    39.9 12881816      978.
 8 Afghanistan Asia       1987    40.8 13867957      852.
 9 Afghanistan Asia       1992    41.7 16317921      649.
10 Afghanistan Asia       1997    41.8 22227415      635.
# … with 1,694 more rows
…
Once your data is tidy, a common first step is to transform it. This includes:

narrowing in on what interests you (e.g. all people without toilets in one district, or all data from last year)

creating new variables from existing (like toilet density, as in number of people per toilet)

calculating summary statistics (like counts or the mean)

Waste characterization data

waste_data_clean %>% 
  filter(Sample == "23-A1") 

# A tibble: 26 × 4
   Date   Sample Category                   Mass
   <chr>  <chr>  <chr>                     <dbl>
 1 23-Feb 23-A1  Food/Organic              36.5 
 2 23-Feb 23-A1  Paper (white)              1.64
 3 23-Feb 23-A1  Other recyclable Paper     0   
 4 23-Feb 23-A1  Non-recyclable Paper       0.29
 5 23-Feb 23-A1  Cardboards                 1.52
 6 23-Feb 23-A1  Textile                    1.11
 7 23-Feb 23-A1  All Low Value Plastic      8.06
 8 23-Feb 23-A1  Medium Value Plastic (#4)  0.11
 9 23-Feb 23-A1  PP (#5)                    0   
10 23-Feb 23-A1  PET (#1)                   0.24
# … with 16 more rows
…
