Application Exercise 6 - Data import and exploration
…
Stored locally as a CSV

Waste Characterization Data, Abidjan, Cote d’Ivoire, 

The data in this exercise come from a study undertaken in Abidjan, Cote d’Ivore (Waste2Worth Innovations 2020). The data is stored in the sub-folder “raw_data” within the “data” folder. We are using functions of the readr R Package to import the data into our script.

library(readr)

waste_data <- read_csv(file = "data/raw_data/abidjan-waste-characterization.csv")

# Data exploration

waste_data

# A tibble: 2,080 × 4
   Date   Sample Category     `mass (kg)`
   <chr>  <chr>  <chr>              <dbl>
 1 23-Feb 23-A1  Food/Organic        36.5
 2 23-Feb 23-B1  Food/Organic        65.0
 3 23-Feb 23-A2  Food/Organic        62.4
 4 23-Feb 23-B2  Food/Organic        72.6
 5 23-Feb 23-A3  Food/Organic        88.6
 6 23-Feb 23-B3  Food/Organic        69.1
 7 23-Feb 23-A4  Food/Organic        66.0
 8 23-Feb 23-B4  Food/Organic        89.6
 9 23-Feb 23-A5  Food/Organic        53.9
10 23-Feb 23-B5  Food/Organic        67.5
# … with 2,070 more rows
…
ncol(waste_data)

[1] 4

Stored in a R data package

Palmer Penguins

Size measurements for adult foraging penguins near Palmer Station, Antarctica.

library(palmerpenguins)

penguins

# A tibble: 344 × 8
   species island    bill_length_mm bill_depth_mm flipper_length_mm body_mass_g
   <fct>   <fct>              <dbl>         <dbl>             <int>       <int>
 1 Adelie  Torgersen           39.1          18.7               181        3750
 2 Adelie  Torgersen           39.5          17.4               186        3800
 3 Adelie  Torgersen           40.3          18                 195        3250
 4 Adelie  Torgersen           NA            NA                  NA          NA
 5 Adelie  Torgersen           36.7          19.3               193        3450
 6 Adelie  Torgersen           39.3          20.6               190        3650
 7 Adelie  Torgersen           38.9          17.8               181        3625
 8 Adelie  Torgersen           39.2          19.6               195        4675
 9 Adelie  Torgersen           34.1          18.1               193        3475
10 Adelie  Torgersen           42            20.2               190        4250
# … with 334 more rows, and 2 more variables: sex <fct>, year <int>
…
